{
  "project_info": {
    "project_number": "814501834027",
    "project_id": "fir-login-85170",
    "storage_bucket": "fir-login-85170.appspot.com"
  },
  "client": [
    {
      "client_info": {
        "mobilesdk_app_id": "1:814501834027:android:dce173a7ed1936d88da96e",
        "android_client_info": {
          "package_name": "com.example.demologin"
        }
      },
      "oauth_client": [
        {
          "client_id": "814501834027-6jdvijlhpnmhs7ndrh2vh3s7o2ipvgsd.apps.googleusercontent.com",
          "client_type": 3
        }
      ],
      "api_key": [
        {
          "current_key": "AIzaSyAfD4FMQwJ0FN-gGrG_qkoEjmOzk-Rs-rc"
        }
      ],
      "services": {
        "appinvite_service": {
          "other_platform_oauth_client": [
            {
              "client_id": "814501834027-6jdvijlhpnmhs7ndrh2vh3s7o2ipvgsd.apps.googleusercontent.com",
              "client_type": 3
            }
          ]
        }
      }
    }
  ],
  "configuration_version": "1"
}